<?xml version="1.0" encoding="UTF-8" standalone="no"?>
<!-- Generator: Adobe Illustrator 22.1.0, SVG Export Plug-In . SVG Version: 6.00 Build 0)  -->

<svg
   xmlns:dc="http://purl.org/dc/elements/1.1/"
   xmlns:cc="http://creativecommons.org/ns#"
   xmlns:rdf="http://www.w3.org/1999/02/22-rdf-syntax-ns#"
   xmlns:svg="http://www.w3.org/2000/svg"
   xmlns="http://www.w3.org/2000/svg"
   xmlns:sodipodi="http://sodipodi.sourceforge.net/DTD/sodipodi-0.dtd"
   xmlns:inkscape="http://www.inkscape.org/namespaces/inkscape"
   version="1.1"
   id="Layer_1"
   x="0px"
   y="0px"
   viewBox="0 0 512 512"
   style="enable-background:new 0 0 512 512;"
   xml:space="preserve"
   sodipodi:docname="bank.svg"
   inkscape:version="0.92.4 (5da689c313, 2019-01-14)"><metadata
   id="metadata19"><rdf:RDF><cc:Work
       rdf:about=""><dc:format>image/svg+xml</dc:format><dc:type
         rdf:resource="http://purl.org/dc/dcmitype/StillImage" /><dc:title></dc:title></cc:Work></rdf:RDF></metadata><defs
   id="defs17" /><sodipodi:namedview
   pagecolor="#ffffff"
   bordercolor="#666666"
   borderopacity="1"
   objecttolerance="10"
   gridtolerance="10"
   guidetolerance="10"
   inkscape:pageopacity="0"
   inkscape:pageshadow="2"
   inkscape:window-width="1366"
   inkscape:window-height="705"
   id="namedview15"
   showgrid="false"
   inkscape:zoom="0.4609375"
   inkscape:cx="256"
   inkscape:cy="256"
   inkscape:window-x="-8"
   inkscape:window-y="-8"
   inkscape:window-maximized="1"
   inkscape:current-layer="Layer_1" />
<style
   type="text/css"
   id="style2">
	.st0{fill:#FFFFFF;}
	.st1{fill:#CACACA;}
</style>
<rect
   class="st0"
   width="512"
   height="512"
   id="rect4" />
<g
   id="g12"
   style="fill:#ffffff;fill-opacity:1"
   transform="translate(4.2,14.45)">
	<path
   class="st1"
   d="m 367.4,252.4 c -2.5,0 -4.9,2.5 -4.9,4.9 0,3.3 -3.3,6.5 -6.5,6.5 -3.3,0 -6.5,-3.3 -6.5,-6.5 0,-2.5 -2.5,-4.9 -4.9,-4.9 -2.4,0 -4.9,2.5 -4.9,4.9 0,9 7.4,16.4 17.2,16.4 9,0 17.2,-7.4 17.2,-16.4 -1.8,-3.2 -4.3,-4.9 -6.7,-4.9 z"
   id="path6"
   style="fill:#ffffff;fill-opacity:1"
   inkscape:connector-curvature="0" />
	<path
   class="st1"
   d="M 415.7,253.3 401,248.4 c -1.6,-0.8 -3.3,-2.5 -4.1,-4.1 -3.3,-9.8 -7.4,-18.8 -13.9,-27 -2.5,-4.1 -5.7,-7.4 -9,-10.6 2.5,-9 3.3,-19.6 3.3,-28.7 0,-13.1 -2.5,-20.5 -8.2,-23.7 -2.5,-1.6 -11.5,-5.7 -57.3,14.7 -0.8,0.8 -2.5,0.8 -3.3,1.6 -3.3,-0.8 -6.5,-1.6 -9.8,-2.5 h -0.8 c 4.1,-8.2 5.7,-17.2 6.5,-26.2 0,-2.5 -2.5,-4.9 -4.9,-5.7 -2.5,0 -4.9,2.5 -5.7,4.9 -0.8,14.7 -6.5,28.7 -18,39.3 -6.5,6.5 -13.9,10.6 -22.1,13.9 -13.9,-1.6 -27.8,-1.6 -41.7,0 -8.2,-3.3 -15.6,-7.4 -22.1,-13.9 -11.5,-11.5 -18,-26.2 -18,-41.7 0,-15.5 6.5,-31.1 18,-41.7 11.5,-11.5 26.2,-17.2 42.6,-17.2 16.4,0 31.1,6.5 42.6,17.2 4.9,4.9 8.2,9.8 11.5,15.6 1.6,2.5 4.1,3.3 7.4,2.5 2.5,-1.6 3.3,-4.1 2.5,-6.5 -3.3,-6.5 -8.2,-12.3 -13.1,-18 C 270,77.3 252,69.9 233.1,69.9 c -18.9,0 -36,7.4 -49.1,20.5 -13.1,13.1 -20.5,30.3 -20.5,49.1 0,18.8 7.4,36 20.5,49.1 4.1,4.1 8.2,7.4 12.3,9.8 v 0 c -3.3,0.8 -6.5,1.6 -9.8,2.5 -2.5,0.8 -4.1,4.1 -3.3,6.5 0.8,2.4 4.1,4.1 6.5,3.3 28.7,-9 59.8,-9 87.6,0 0.8,0 0.8,0 1.6,0 2.5,0 4.1,-1.6 4.9,-3.3 0.8,-2.5 -0.8,-5.7 -3.3,-6.5 -3.3,-0.8 -6.5,-1.6 -9.8,-2.5 v 0 c 4.1,-2.5 9,-5.7 12.3,-9.8 3.3,-3.3 6.5,-7.4 9,-10.6 1.6,0 2.5,0.8 4.1,0.8 1.6,0 4.1,0.8 5.7,1.6 v 0.8 c -2.5,11.5 -2.5,22.1 0.8,31.1 2.5,8.2 7.4,13.9 13.9,18.8 7.4,5.7 17.2,8.2 25.4,8.2 6.5,0 12.3,-1.6 16.4,-4.1 4.9,-2.5 9,-8.2 12.3,-17.2 1.6,1.6 3.3,3.3 4.1,4.9 5.7,7.4 9.8,15.6 12.3,23.7 1.6,4.9 5.7,9 10.6,10.6 l 14.7,4.9 c 4.1,0.8 6.5,4.9 6.5,9 V 295 c 0,4.1 -2.5,7.4 -6.5,9 l -22.9,7.4 c -4.1,0.8 -6.5,4.1 -9,7.4 -9,15.6 -23.7,28.7 -43.4,38.5 -2.5,0.8 -4.1,3.3 -4.1,5.7 l -7.4,39.3 c 0,0.8 -0.8,1.6 -2.5,1.6 h -24.6 c -0.8,0 -2.5,-0.8 -2.5,-1.6 l -4.1,-22.1 c -0.8,-4.1 -4.9,-7.4 -9,-6.5 -10.6,1.6 -21.3,2.5 -31.9,2.5 -8.2,0 -16.4,-0.8 -23.7,-1.6 -4.1,-0.8 -8.2,2.5 -9,6.5 l -4.1,20.5 c 0,0.8 -0.8,1.6 -2.5,1.6 H 187 c -0.8,0 -2.5,-0.8 -2.5,-1.6 l -7.4,-36.8 c -0.8,-2.5 -1.6,-4.1 -4.1,-5.7 -32.7,-17.2 -50.8,-46.7 -50.8,-84.3 0,-18.8 4.1,-36 12.3,-49.9 7.4,-13.1 18.8,-23.7 33.6,-32.7 2.5,-1.6 3.3,-4.9 1.6,-7.4 -1.6,-2.5 -4.9,-3.3 -7.4,-1.6 -28.7,16.4 -45,40.9 -49.9,72.9 v 0 c -0.8,0 -0.8,0 -1.6,0 0,-3.3 -0.8,-6.5 -1.6,-9.8 -3.3,-7.4 -9,-13.1 -15.6,-13.9 -4.9,-0.8 -9.8,1.6 -13.1,5.7 -4.9,6.5 -4.1,11.5 -2.5,14.7 2.5,4.9 9,9 20.5,11.5 0,0.8 -0.8,0.8 -0.8,1.6 -6.5,8.2 -14.7,9.8 -19.6,9.8 -3.3,0 -4.9,2.5 -4.9,5.7 v 0 c 0,3.3 2.5,4.9 4.9,5.7 h 0.8 c 6.5,0 16.4,-2.5 26.2,-14.7 1.6,-1.6 3.3,-3.3 4.1,-5.7 0.8,0 1.6,0 2.5,0 v 0 c 0,2.5 0,5.7 0,8.2 0,21.3 4.9,40.1 15.6,56.5 9,14.7 22.9,27 40.1,36 l 7.4,36 c 0.8,5.7 6.5,9.8 12.3,9.8 h 24.6 c 5.7,0 11.5,-4.1 12.3,-9.8 l 3.3,-18.8 c 7.4,0.8 15.6,0.8 22.9,0.8 10.6,0 21.3,-0.8 31.9,-2.5 l 4.1,19.6 c 0.8,5.7 6.5,9.8 12.3,9.8 h 24.6 c 5.7,0 11.5,-4.1 12.3,-9.8 l 7.4,-38.5 c 20.5,-10.6 36,-25.4 46.7,-42.6 0.8,-1.6 1.6,-2.5 3.3,-2.5 l 23.7,-7.4 c 8.2,-2.5 13.9,-9.8 13.9,-18 v -23.7 c -0.8,-6.7 -6.5,-14.1 -14.7,-16.5 z m -49.1,-61.4 c -1.6,17.2 -7.4,31.1 -13.1,34.4 -5.7,3.3 -20.5,4.1 -31.1,-3.3 -10.6,-7.4 -13.9,-21.3 -9.8,-40.1 v 0 c 0,-1.6 1.6,-3.3 3.3,-4.1 26.2,-11.5 40.9,-15.6 46.7,-15.6 0.8,0 1.6,0 1.6,0 1.6,2.5 4,12.3 2.4,28.7 z M 87.4,249.2 c -0.8,-0.8 0.8,-3.3 1.6,-4.1 1.6,-1.6 2.5,-1.6 3.3,-1.6 0,0 0,0 0.8,0 2.5,0 5.7,3.3 7.4,7.4 0.8,0.8 0.8,2.5 0.8,4.1 -6.5,-1.7 -12.2,-3.4 -13.9,-5.8 z"
   id="path8"
   style="fill:#ffffff;fill-opacity:1"
   inkscape:connector-curvature="0" />
	<path
   class="st1"
   d="m 238.9,133.7 v -18 c 6.5,0.8 9,3.3 10.6,3.3 2.5,0 4.1,-3.3 4.1,-4.9 0,-4.1 -9,-6.5 -14.7,-6.5 v -2.5 c 0,-0.8 -1.6,-2.5 -2.5,-2.5 -1.6,0 -2.5,0.8 -2.5,2.5 v 2.5 c -9,0.8 -17.2,5.7 -17.2,16.4 0,11.5 9,14.7 17.2,18 v 21.3 c -9.8,-0.8 -12.3,-7.4 -15.6,-7.4 -2.5,0 -4.1,3.3 -4.1,4.9 0,4.1 7.4,10.6 18.8,10.6 v 2.5 c 0,0.8 0.8,2.5 2.5,2.5 1.6,0 2.5,-0.8 2.5,-2.5 v -3.3 c 9.8,-1.6 16.4,-7.4 16.4,-18.8 0.8,-10.7 -7.3,-14.8 -15.5,-18.1 z m -4.9,-1.6 c -4.9,-1.6 -9,-4.1 -9,-9 0,-4.9 3.3,-6.5 9,-7.4 z m 4,31.1 v -19.6 c 4.1,1.6 8.2,4.1 8.2,9.8 0,5.7 -3.2,9 -8.2,9.8 z"
   id="path10"
   style="fill:#ffffff;fill-opacity:1"
   inkscape:connector-curvature="0" />
</g>
</svg>