<svg width="104" height="104" viewBox="0 0 104 104" fill="none" xmlns="http://www.w3.org/2000/svg">
<path d="M104 53.7831C104 45.5889 98.1273 38.5907 90.1714 37.0827L89.7252 35.7458C91.7632 34.5632 93.2796 32.5755 93.7644 30.1935H93.9355C97.6359 30.1935 100.645 27.1843 100.645 23.4839C100.645 22.1168 100.229 20.847 99.5246 19.7852L100.238 16.9319C100.508 15.8533 100.645 14.7412 100.645 13.6257C100.645 6.11252 94.5326 0 87.0195 0H80.2293C76.965 0 73.887 1.19265 71.4765 3.35484H10.0645C4.51394 3.35484 0 7.86877 0 13.4194V93.9355C0 99.4861 4.51394 104 10.0645 104H99.1908L97.3893 89.5926C101.533 86.1086 104 80.9221 104 75.4839V65.4193C104 62.6449 101.742 60.3871 98.9677 60.3871C98.3052 60.3871 97.6761 60.523 97.0957 60.7561C96.517 58.6174 94.5779 57.0323 92.2581 57.0323C91.5955 57.0323 90.9664 57.1681 90.3861 57.4013C90.3525 57.2755 90.3139 57.153 90.2703 57.0323H92.2581H104V53.7831ZM91.3841 40.872L89.6866 44.8039L85.587 43.1634L89.3326 40.3554C90.0372 40.4778 90.7232 40.6472 91.3841 40.872ZM60.4525 65.9461L62.5325 78.4227C62.6516 79.1356 62.8277 79.8317 63.0357 80.5145H10.0645V13.4194H63.7587C63.757 13.4898 63.7419 13.5552 63.7419 13.6257V14.0065C63.7419 14.8686 63.8476 15.7292 64.0573 16.5612L64.8624 19.7852C64.1579 20.847 63.7419 22.1168 63.7419 23.4839C63.7419 27.1843 66.7512 30.1935 70.4516 30.1935H70.621C71.1058 32.5738 72.6222 34.5615 74.6603 35.7458L74.2141 37.0827C66.2597 38.5907 60.3871 45.5889 60.3871 53.7831V57.0323H73.8064V69.4049C73.8064 69.9819 73.3368 70.4516 72.7597 70.4516C72.2448 70.4516 71.812 70.0826 71.7264 69.5777L71.0219 65.3489C70.5422 62.4738 68.0781 60.3871 65.1627 60.3871C62.5292 60.3871 60.3871 62.5292 60.3871 65.1627C60.3871 65.4277 60.4089 65.6894 60.4525 65.9461ZM67.3115 15.7476C67.1689 15.1806 67.0968 14.5935 67.0968 14.0065V13.6257C67.0968 10.8529 68.6853 8.40723 71.0874 7.2129L73.325 13.9243C72.1324 14.4963 71.2081 15.5178 70.7603 16.7725H70.4516C69.4753 16.7725 68.5545 16.9923 67.7174 17.368L67.3115 15.7476ZM70.4516 26.8387C68.6014 26.8387 67.0968 25.3341 67.0968 23.4839C67.0968 21.6337 68.6014 20.129 70.4516 20.129V26.8387ZM74.6988 44.8039L73.0013 40.872C73.6622 40.6472 74.3483 40.4778 75.0528 40.3554L78.7985 43.1634L74.6988 44.8039ZM73.8064 53.6774H63.7419C63.7788 48.9672 66.2312 44.7636 69.9786 42.3314L72.9141 49.1316L73.8064 48.7743V53.6774ZM86.9289 37.965L82.1935 41.5161L77.4582 37.965L77.8457 36.8026C78.1745 36.8428 78.4982 36.9032 78.8387 36.9032H85.5484C85.8889 36.9032 86.2126 36.8428 86.5431 36.8026L86.9289 37.965ZM90.5806 28.5161C90.5806 31.2906 88.3228 33.5484 85.5484 33.5484H78.8387C76.0643 33.5484 73.8064 31.2906 73.8064 28.5161V18.4516C73.8064 17.5274 74.5596 16.7742 75.4839 16.7742H88.9032C89.8275 16.7742 90.5806 17.5274 90.5806 18.4516V28.5161ZM93.9355 26.8387V20.129C95.7857 20.129 97.2903 21.6337 97.2903 23.4839C97.2903 25.3341 95.7857 26.8387 93.9355 26.8387ZM87.0195 3.35484C92.6824 3.35484 97.2903 7.96271 97.2903 13.6257C97.2903 14.4661 97.1863 15.3031 96.9834 16.1166L96.6697 17.3697C95.8326 16.9939 94.9117 16.7742 93.9355 16.7742H93.6268C92.9324 14.8267 91.0872 13.4194 88.9032 13.4194H76.6933L74.0681 5.54219C75.8043 4.12645 77.9564 3.35484 80.2293 3.35484H87.0195ZM3.35484 93.9355V13.4194C3.35484 9.71897 6.36413 6.70968 10.0645 6.70968H66.3688C65.5083 7.69432 64.8222 8.81987 64.3743 10.0645H10.0645C8.21432 10.0645 6.70968 11.5692 6.70968 13.4194V80.5161C6.70968 82.3663 8.21432 83.871 10.0645 83.871H64.4783C65.8706 86.2999 67.8885 88.3396 70.3275 89.7956L68.9705 100.645H10.0645C6.36413 100.645 3.35484 97.6359 3.35484 93.9355ZM72.3521 100.645L73.6102 90.5806H94.1334L95.3915 100.645H72.3521ZM87.2258 58.7097V73.8064H90.5806V62.0645C90.5806 61.1386 91.3338 60.3871 92.2581 60.3871C93.1823 60.3871 93.9355 61.1386 93.9355 62.0645V73.8064H97.2903V65.4193C97.2903 64.4934 98.0435 63.7419 98.9677 63.7419C99.892 63.7419 100.645 64.4934 100.645 65.4193V75.4839C100.645 80.028 98.5584 84.3775 95.0375 87.2258H72.5383C68.9956 85.3203 66.5046 81.8513 65.8404 77.8742L63.7604 65.3975C63.7486 65.3187 63.7419 65.2415 63.7419 65.1627C63.7419 64.3794 64.3794 63.7419 65.1627 63.7419C66.4308 63.7419 67.5044 64.6511 67.7141 65.9008L68.4186 70.1279C68.7725 72.2599 70.5992 73.8064 72.7597 73.8064C75.187 73.8064 77.1613 71.8321 77.1613 69.4049V48.6452C77.1613 47.7209 77.9145 46.9677 78.8387 46.9677C79.763 46.9677 80.5161 47.7209 80.5161 48.6452V73.8064H83.871V58.7097C83.871 57.7837 84.6241 57.0323 85.5484 57.0323C86.4726 57.0323 87.2258 57.7837 87.2258 58.7097ZM83.871 53.6774V48.6452C83.871 47.5448 83.5053 46.5333 82.9031 45.7046L91.473 49.1316L94.4085 42.3314C98.1559 44.7636 100.608 48.9672 100.645 53.6774H83.871Z" fill="#2077BB"/>
<path d="M85.5484 24.7653C84.9093 26.0435 83.6244 26.8386 82.1935 26.8386H77.1613V30.1934H82.1935C84.9026 30.1934 87.3382 28.6888 88.5493 26.2649L88.7254 25.911L85.7245 24.4097L85.5484 24.7653Z" fill="#2077BB"/>
<path d="M46.9677 87.2256H33.5484C31.6982 87.2256 30.1935 88.7302 30.1935 90.5804V93.9353C30.1935 95.7855 31.6982 97.2901 33.5484 97.2901H46.9677C48.8179 97.2901 50.3226 95.7855 50.3226 93.9353V90.5804C50.3226 88.7302 48.8179 87.2256 46.9677 87.2256ZM33.5484 93.9353V90.5804H46.9677L46.9694 93.9353H33.5484Z" fill="#2077BB"/>
<path d="M30.5642 31.5223C32.3742 29.9824 33.5484 27.7179 33.5484 25.1615C33.5484 20.5369 29.7859 16.7744 25.1613 16.7744C20.5366 16.7744 16.7742 20.5369 16.7742 25.1615C16.7742 27.7179 17.9484 29.9824 19.7583 31.5223C15.9975 33.4815 13.4193 37.41 13.4193 41.9357V43.6131H36.9032V41.9357C36.9032 37.41 34.325 33.4815 30.5642 31.5223ZM20.129 25.1615C20.129 22.3871 22.3868 20.1293 25.1613 20.1293C27.9357 20.1293 30.1935 22.3871 30.1935 25.1615C30.1935 27.936 27.9357 30.1938 25.1613 30.1938C22.3868 30.1938 20.129 27.936 20.129 25.1615ZM16.9436 40.2583C17.7219 36.4354 21.112 33.5486 25.1613 33.5486C29.2106 33.5486 32.6006 36.4354 33.379 40.2583H16.9436Z" fill="#2077BB"/>
<path d="M30.5642 65.0706C32.3742 63.5308 33.5484 61.2662 33.5484 58.7099C33.5484 54.0852 29.7859 50.3228 25.1613 50.3228C20.5366 50.3228 16.7742 54.0852 16.7742 58.7099C16.7742 61.2662 17.9484 63.5308 19.7583 65.0706C15.9975 67.0299 13.4193 70.9584 13.4193 75.484V77.1615H36.9032V75.484C36.9032 70.9584 34.325 67.0299 30.5642 65.0706ZM20.129 58.7099C20.129 55.9354 22.3868 53.6776 25.1613 53.6776C27.9357 53.6776 30.1935 55.9354 30.1935 58.7099C30.1935 61.4843 27.9357 63.7421 25.1613 63.7421C22.3868 63.7421 20.129 61.4843 20.129 58.7099ZM16.9436 73.8066C17.7219 69.9838 21.112 67.0969 25.1613 67.0969C29.2106 67.0969 32.6006 69.9838 33.379 73.8066H16.9436Z" fill="#2077BB"/>
<path d="M40.2581 40.2583H50.3226V43.6131H40.2581V40.2583Z" fill="#2077BB"/>
<path d="M40.2581 33.5483H57.0322V36.9032H40.2581V33.5483Z" fill="#2077BB"/>
<path d="M40.2581 26.8389H46.9677V30.1937H40.2581V26.8389Z" fill="#2077BB"/>
<path d="M50.3226 26.8389H57.0322V30.1937H50.3226V26.8389Z" fill="#2077BB"/>
<path d="M40.2581 73.8066H50.3226V77.1615H40.2581V73.8066Z" fill="#2077BB"/>
<path d="M40.2581 67.0967H57.0322V70.4515H40.2581V67.0967Z" fill="#2077BB"/>
<path d="M40.2581 60.3872H46.9677V63.742H40.2581V60.3872Z" fill="#2077BB"/>
</svg>
