<svg width="124" height="124" viewBox="0 0 124 124" fill="none" xmlns="http://www.w3.org/2000/svg">
<path d="M104.341 20.9741C92.4347 8.49421 74.1372 6.5785 60.6018 14.0977C59.4323 14.7472 59.0111 16.2222 59.6606 17.3914C60.3102 18.5612 61.7851 18.9819 62.9544 18.3326C75.3345 11.4542 90.9116 13.9161 100.826 24.3076C111.055 35.1603 112.206 51.3374 104.293 63.3308C93.3925 79.8872 69.8497 82.3822 55.7343 68.2641C46.2229 58.7561 43.4673 43.4225 50.3379 30.9447C50.9826 29.7726 50.5551 28.2996 49.3832 27.6549C48.2112 27.0107 46.7385 27.4376 46.0933 28.6096C45.9448 28.8796 45.6809 29.3829 45.4263 29.899H45.4266C38.3818 44.2592 41.5869 60.9719 52.309 71.6899C68.5715 87.9557 95.7357 85.1386 108.338 65.9968C117.376 52.2989 116.267 33.6272 104.341 20.9741Z" fill="#2077BB"/>
<path d="M110.544 13.4564C92.5996 -4.48513 63.4015 -4.48586 45.4569 13.4566C29.3204 29.5955 27.5832 54.8985 40.724 72.9999L33.1758 80.5464C30.5294 79.2798 27.1829 79.6886 24.9039 81.9678L3.55213 103.322C-1.18191 108.053 -1.18578 115.714 3.55092 120.448C8.28302 125.183 15.9441 125.185 20.6772 120.448L42.0321 99.096C44.3101 96.8175 44.7204 93.471 43.4533 90.8244L51.0005 83.2754C69.106 96.4191 94.4071 94.6773 110.544 78.543C128.486 60.5986 128.486 31.401 110.544 13.4564ZM38.6064 95.6705L17.251 117.023C14.4128 119.864 9.81849 119.866 6.97642 117.022C4.13556 114.183 4.13387 109.589 6.97691 106.748L28.3291 85.3933C29.2729 84.4493 30.8096 84.4488 31.7534 85.3933L38.6061 92.246C39.5506 93.1901 39.5506 94.7265 38.6064 95.6705ZM40.3191 87.1075L36.8926 83.6811L43.7904 76.785C44.3314 77.3854 44.8872 77.9739 45.4566 78.543C46.026 79.1124 46.6143 79.6685 47.2152 80.2098L40.3191 87.1075ZM107.118 75.1175C91.0664 91.1666 65.0656 91.3032 48.8819 75.1175C32.7176 58.9549 32.8137 32.9529 48.8819 16.8821C64.9363 0.829916 91.0608 0.827252 107.118 16.8821C123.171 32.9377 123.171 59.0622 107.118 75.1175Z" fill="#2077BB"/>
</svg>
