<svg width="10" height="18" viewBox="0 0 10 18" fill="none" xmlns="http://www.w3.org/2000/svg">
<path d="M5 18L0.669873 10.5L9.33013 10.5L5 18Z" fill="#454343"/>
<path d="M5 0L9.33013 7.5L0.669873 7.5L5 0Z" fill="#454343"/>
</svg>
